<?xml version="1.0" encoding="UTF-8" standalone="no"?>
<!-- Created with Inkscape (http://www.inkscape.org/) -->
<svg id="svg2" xmlns:rdf="http://www.w3.org/1999/02/22-rdf-syntax-ns#" xmlns="http://www.w3.org/2000/svg" height="48.603" width="51.003" version="1.1" xmlns:cc="http://creativecommons.org/ns#" xmlns:dc="http://purl.org/dc/elements/1.1/">
 <metadata id="metadata7">
  <rdf:RDF>
   <cc:Work rdf:about="">
    <dc:format>image/svg+xml</dc:format>
    <dc:type rdf:resource="http://purl.org/dc/dcmitype/StillImage"/>
    <dc:title/>
   </cc:Work>
  </rdf:RDF>
 </metadata>
 <g id="g4099" stroke="#333" fill="#b8b8b8" transform="translate(0,-0.25000055)">
  <path id="path3902" d="m33.634,21.893a12.455,11.898,0,0,1,-0.15638,0.12451,12.455,11.898,0,0,1,-1.0008,0.68479,12.455,11.898,0,0,1,-1.0946,0.59141,12.455,11.898,0,0,1,-1.1259,0.49803,12.455,11.898,0,0,1,-1.1885,0.37352,12.455,11.898,0,0,1,-1.2197,0.24901,12.455,11.898,0,0,1,-1.2197,0.15564,12.455,11.898,0,0,1,-1.251,0,12.455,11.898,0,0,1,-1.251,-0.09338,12.455,11.898,0,0,1,-1.2197,-0.21789,12.455,11.898,0,0,1,-1.1885,-0.31127,12.455,11.898,0,0,1,-1.1572,-0.43578,12.455,11.898,0,0,1,-1.0946,-0.56028,12.455,11.898,0,0,1,-1.0634,-0.65366,12.455,11.898,0,0,1,-0.28148,-0.21789c-0.43376,0.37138-0.83964,0.70306-1.3761,1.2139-4.7068,4.4823-6.7555,8.7411-6.7555,14.038,0,5.0853,2.2598,8.1783,7.162,9.8672,7.1628,2.4679,18.457,1.0021,21.799-2.8325,4.3453-4.9861,3.0511-13.585-3.065-20.201-0.90663-0.98085-1.6221-1.6869-2.2518-2.2723zm0.56296,0.74704c0.17465,0.15261,0.37234,0.35713,0.56296,0.52916a12.729,10.676,0,0,1,-1.0321,0.77817c-0.24737,0.15863-0.49088,0.32272-0.75061,0.4669a12.729,10.676,0,0,1,-0.28148,0.15564c-0.28504,0.14624-0.57681,0.27563-0.87571,0.40465-0.38925,0.17618-0.81208,0.32498-1.2197,0.4669-0.41362,0.13752-0.82347,0.27247-1.251,0.37352-0.42703,0.09818-0.84601,0.18815-1.2823,0.24902-0.42881,0.06811-0.87905,0.09321-1.3136,0.12451-0.44272,0.01919-0.87084,0.01919-1.3136,0-0.44446-0.01058-0.90387-0.04431-1.3448-0.09338-0.43568-0.05103-0.85466-0.09862-1.2823-0.18676-0.42631-0.08146-0.86741-0.1939-1.2823-0.31127-0.3405-0.09909-0.67321-0.19187-1.0008-0.31127a12.729,10.676,0,0,1,-0.21893,-0.09338c-0.0303-0.01236-0.06369-0.01832-0.09382-0.03113-0.36533-0.1553-0.71507-0.34846-1.0634-0.52916-0.27863-0.13785-0.54806-0.28206-0.81316-0.43578a12.729,10.676,0,0,1,-0.1251,-0.09338c-0.05975-0.03562-0.12841-0.05673-0.18765-0.09338a12.729,10.676,0,0,1,-0.93827,-0.6848c0.19683-0.158,0.43225-0.34248,0.62551-0.49803,0.09851,0.07384,0.21189,0.14665,0.31275,0.21789,0.364,0.23463,0.7373,0.45338,1.1259,0.65366,0.37702,0.20376,0.75944,0.39125,1.1572,0.56028,0.40145,0.16336,0.80215,0.30918,1.2197,0.43578,0.41488,0.12226,0.85598,0.22641,1.2823,0.31127,0.42763,0.09183,0.8466,0.16473,1.2823,0.21789,0.44097,0.05112,0.90038,0.08237,1.3448,0.09338,0.44272,0.01999,0.87085,0.01999,1.3136,0,0.43452-0.0326,0.88475-0.08469,1.3136-0.15564,0.43628-0.06341,0.85526-0.14674,1.2823-0.24902,0.42754-0.10527,0.83739-0.23026,1.251-0.37352,0.40766-0.14784,0.83049-0.3145,1.2197-0.49803,0.39845-0.17917,0.78089-0.37708,1.1572-0.59141,0.36674-0.21209,0.72173-0.44123,1.0634-0.68479,0.05576-0.04105,0.10137-0.08264,0.15638-0.12451z" stroke-width="0.97914541"/>
  <path id="path3880" d="m37.011,11.853a11.261,10.261,0,0,1,-22.522,0,11.261,10.261,0,1,1,22.522,0z" fill-rule="nonzero" stroke-miterlimit="4" stroke-dasharray="none" stroke-width="0.97822887"/>
 </g>
</svg>
